Tutorial 1 – EVE 113 R Bootcamp
…
Argument one is the data frame.

Subsequent arguments describe what you’d like to actually do with the data.

The result is saved in a new data frame.

Do these things and you can successfully manipulate any data frame.

Filter Rows with filter()

filter() subsets observations based on their values followed by a logical operator that you provide. For example, say I want to only look at Chinstrap penguin measurements from 2007.

filter(penguins, species == "Chinstrap", year == 2007)

# A tibble: 26 × 8
   species   island bill_length_mm bill_depth_mm flipper_length_mm body_mass_g
   <fct>     <fct>           <dbl>         <dbl>             <int>       <int>
 1 Chinstrap Dream            46.5          17.9               192        3500
 2 Chinstrap Dream            50            19.5               196        3900
 3 Chinstrap Dream            51.3          19.2               193        3650
 4 Chinstrap Dream            45.4          18.7               188        3525
 5 Chinstrap Dream            52.7          19.8               197        3725
 6 Chinstrap Dream            45.2          17.8               198        3950
 7 Chinstrap Dream            46.1          18.2               178        3250
 8 Chinstrap Dream            51.3          18.2               197        3750
 9 Chinstrap Dream            46            18.9               195        4150
10 Chinstrap Dream            51.3          19.9               198        3700
# ℹ 16 more rows
# ℹ 2 more variables: sex <fct>, year <int>

dplyr functions never permanently modify their inputs, so if you want to save the result, you’ll need to use an assignment <- operator.

chinstrap_2007_df <- filter(penguins, species == "Chinstrap", year == 2007)

R will either print out the results if you explicitly ask using print(), or save them into a variable without printing. If you want to print and save it, wrap the entire argument in parentheses.

(chinstrap_2007_df <- filter(penguins, species == "Chinstrap", year == 2007))

# A tibble: 26 × 8
   species   island bill_length_mm bill_depth_mm flipper_length_mm body_mass_g
   <fct>     <fct>           <dbl>         <dbl>             <int>       <int>
 1 Chinstrap Dream            46.5          17.9               192        3500
 2 Chinstrap Dream            50            19.5               196        3900
 3 Chinstrap Dream            51.3          19.2               193        3650
 4 Chinstrap Dream            45.4          18.7               188        3525
 5 Chinstrap Dream            52.7          19.8               197        3725
 6 Chinstrap Dream            45.2          17.8               198        3950
 7 Chinstrap Dream            46.1          18.2               178        3250
 8 Chinstrap Dream            51.3          18.2               197        3750
 9 Chinstrap Dream            46            18.9               195        4150
10 Chinstrap Dream            51.3          19.9               198        3700
# ℹ 16 more rows
# ℹ 2 more variables: sex <fct>, year <int>
…
Say, for example I’d like to find penguins that were measured in 2007 or 2008.

filter(penguins, year == 2007 | year == 2008)

# A tibble: 224 × 8
   species island    bill_length_mm bill_depth_mm flipper_length_mm body_mass_g
   <fct>   <fct>              <dbl>         <dbl>             <int>       <int>
 1 Adelie  Torgersen           39.1          18.7               181        3750
 2 Adelie  Torgersen           39.5          17.4               186        3800
 3 Adelie  Torgersen           40.3          18                 195        3250
 4 Adelie  Torgersen           NA            NA                  NA          NA
 5 Adelie  Torgersen           36.7          19.3               193        3450
 6 Adelie  Torgersen           39.3          20.6               190        3650
 7 Adelie  Torgersen           38.9          17.8               181        3625
 8 Adelie  Torgersen           39.2          19.6               195        4675
 9 Adelie  Torgersen           34.1          18.1               193        3475
10 Adelie  Torgersen           42            20.2               190        4250
# ℹ 214 more rows
# ℹ 2 more variables: sex <fct>, year <int>

This reads in plain English as “find all penguins measured in year 2007 or year 2008”. You can also simplify if you’re filtering the data frame by the same variable by using x %in% y.

filter(penguins, year %in% c(2007,2008))

# A tibble: 224 × 8
   species island    bill_length_mm bill_depth_mm flipper_length_mm body_mass_g
   <fct>   <fct>              <dbl>         <dbl>             <int>       <int>
 1 Adelie  Torgersen           39.1          18.7               181        3750
 2 Adelie  Torgersen           39.5          17.4               186        3800
 3 Adelie  Torgersen           40.3          18                 195        3250
 4 Adelie  Torgersen           NA            NA                  NA          NA
 5 Adelie  Torgersen           36.7          19.3               193        3450
 6 Adelie  Torgersen           39.3          20.6               190        3650
 7 Adelie  Torgersen           38.9          17.8               181        3625
 8 Adelie  Torgersen           39.2          19.6               195        4675
 9 Adelie  Torgersen           34.1          18.1               193        3475
10 Adelie  Torgersen           42            20.2               190        4250
# ℹ 214 more rows
# ℹ 2 more variables: sex <fct>, year <int>

Or for character variables…

filter(penguins, species %in% c("Chinstrap", "Adelie"))

# A tibble: 220 × 8
   species island    bill_length_mm bill_depth_mm flipper_length_mm body_mass_g
   <fct>   <fct>              <dbl>         <dbl>             <int>       <int>
 1 Adelie  Torgersen           39.1          18.7               181        3750
 2 Adelie  Torgersen           39.5          17.4               186        3800
 3 Adelie  Torgersen           40.3          18                 195        3250
 4 Adelie  Torgersen           NA            NA                  NA          NA
 5 Adelie  Torgersen           36.7          19.3               193        3450
 6 Adelie  Torgersen           39.3          20.6               190        3650
 7 Adelie  Torgersen           38.9          17.8               181        3625
 8 Adelie  Torgersen           39.2          19.6               195        4675
 9 Adelie  Torgersen           34.1          18.1               193        3475
10 Adelie  Torgersen           42            20.2               190        4250
# ℹ 210 more rows
# ℹ 2 more variables: sex <fct>, year <int>

What if I’d like to do more complicated sub-setting? For example, I’d like to filter for every penguin that isn’t a Adelie and Chinstrap penguins and that have bills <40mm.

filter(penguins, !(species %in% c("Adelie", "Chinstrap") & bill_length_mm > 40))

# A tibble: 224 × 8
   species island    bill_length_mm bill_depth_mm flipper_length_mm body_mass_g
   <fct>   <fct>              <dbl>         <dbl>             <int>       <int>
 1 Adelie  Torgersen           39.1          18.7               181        3750
 2 Adelie  Torgersen           39.5          17.4               186        3800
 3 Adelie  Torgersen           36.7          19.3               193        3450
 4 Adelie  Torgersen           39.3          20.6               190        3650
 5 Adelie  Torgersen           38.9          17.8               181        3625
 6 Adelie  Torgersen           39.2          19.6               195        4675
 7 Adelie  Torgersen           34.1          18.1               193        3475
 8 Adelie  Torgersen           37.8          17.1               186        3300
 9 Adelie  Torgersen           37.8          17.3               180        3700
10 Adelie  Torgersen           38.6          21.2               191        3800
# ℹ 214 more rows
# ℹ 2 more variables: sex <fct>, year <int>
…
Question 5

5a. Filter the tide pool data to only include large tide pools with a macro_richness that is >= to 10.

5b. Filter the Palmer penguins data set to only include male penguins that were measured in every year except 2007 on Biscoe island (HINT: try using the ! logical operator to exclude 2007).

Arrange Rows with arrange()

arrange() changes the orders of rows, which can be useful when plotting or doing ranked statistical analyses.

arrange(penguins, bill_length_mm, bill_depth_mm)

# A tibble: 344 × 8
   species island    bill_length_mm bill_depth_mm flipper_length_mm body_mass_g
   <fct>   <fct>              <dbl>         <dbl>             <int>       <int>
 1 Adelie  Dream               32.1          15.5               188        3050
 2 Adelie  Dream               33.1          16.1               178        2900
 3 Adelie  Torgersen           33.5          19                 190        3600
 4 Adelie  Dream               34            17.1               185        3400
 5 Adelie  Torgersen           34.1          18.1               193        3475
 6 Adelie  Torgersen           34.4          18.4               184        3325
 7 Adelie  Biscoe              34.5          18.1               187        2900
 8 Adelie  Torgersen           34.6          17.2               189        3200
 9 Adelie  Torgersen           34.6          21.1               198        4400
10 Adelie  Biscoe              35            17.9               190        3450
# ℹ 334 more rows
# ℹ 2 more variables: sex <fct>, year <int>

arrange() automatically sorts the values of bill_length_mm and bill_depth_mm in ascending order. If I wanted these variables to be in descending order, I’d specify with desc().

arrange(penguins, desc(bill_length_mm), desc(bill_depth_mm))

# A tibble: 344 × 8
   species   island bill_length_mm bill_depth_mm flipper_length_mm body_mass_g
   <fct>     <fct>           <dbl>         <dbl>             <int>       <int>
 1 Gentoo    Biscoe           59.6          17                 230        6050
 2 Chinstrap Dream            58            17.8               181        3700
 3 Gentoo    Biscoe           55.9          17                 228        5600
 4 Chinstrap Dream            55.8          19.8               207        4000
 5 Gentoo    Biscoe           55.1          16                 230        5850
 6 Gentoo    Biscoe           54.3          15.7               231        5650
 7 Chinstrap Dream            54.2          20.8               201        4300
 8 Chinstrap Dream            53.5          19.9               205        4500
 9 Gentoo    Biscoe           53.4          15.8               219        5500
10 Chinstrap Dream            52.8          20                 205        4550
# ℹ 334 more rows
# ℹ 2 more variables: sex <fct>, year <int>

If you provide more than one column when arranging, each additional column will be used to break ties in the values of preceding columns. Above, we’ve arranged penguin observations by largest bill length, further sorted by largest bill depth. See what happens to the first few rows when we instead sort by bill_depth_mm first.

arrange(penguins, desc(bill_depth_mm), desc(bill_length_mm))

# A tibble: 344 × 8
   species   island   bill_length_mm bill_depth_mm flipper_length_mm body_mass_g
   <fct>     <fct>             <dbl>         <dbl>             <int>       <int>
 1 Adelie    Torgers…           46            21.5               194        4200
 2 Adelie    Dream              42.3          21.2               191        4150
 3 Adelie    Torgers…           38.6          21.2               191        3800
 4 Adelie    Biscoe             41.3          21.1               195        4400
 5 Adelie    Dream              39.2          21.1               196        4150
 6 Adelie    Torgers…           34.6          21.1               198        4400
 7 Chinstrap Dream              54.2          20.8               201        4300
 8 Chinstrap Dream              52            20.7               210        4800
 9 Adelie    Torgers…           42.5          20.7               197        4500
10 Adelie    Biscoe             39.6          20.7               191        3900
# ℹ 334 more rows
# ℹ 2 more variables: sex <fct>, year <int>
…
Question 6

6a. How could you use arrange() to sort all missing values to the start? (HINT: try using is.na()).

6b. In the tide pool data frame, arrange our observations in descending order by the Macro-organism Shannon mean and the Macro-organism richness.

Select Columns with select()

Its not uncommon to receive data sets with hundreds or maybe even thousands of variables. Working with a data frame that dense is computationally expensive, so sub-setting down to the variables of interest is best practice when dealing with data like this. select() gives you the power to accomplish this.

# select columns of interest
select(penguins, species, island, sex, year)

# A tibble: 344 × 4
   species island    sex     year
   <fct>   <fct>     <fct>  <int>
 1 Adelie  Torgersen male    2007
 2 Adelie  Torgersen female  2007
 3 Adelie  Torgersen female  2007
 4 Adelie  Torgersen <NA>    2007
 5 Adelie  Torgersen female  2007
 6 Adelie  Torgersen male    2007
 7 Adelie  Torgersen female  2007
 8 Adelie  Torgersen male    2007
 9 Adelie  Torgersen <NA>    2007
10 Adelie  Torgersen <NA>    2007
# ℹ 334 more rows

# select all columns between species and flipper_length_mm
select(penguins, species:flipper_length_mm)

# A tibble: 344 × 5
   species island    bill_length_mm bill_depth_mm flipper_length_mm
   <fct>   <fct>              <dbl>         <dbl>             <int>
 1 Adelie  Torgersen           39.1          18.7               181
 2 Adelie  Torgersen           39.5          17.4               186
 3 Adelie  Torgersen           40.3          18                 195
 4 Adelie  Torgersen           NA            NA                  NA
 5 Adelie  Torgersen           36.7          19.3               193
 6 Adelie  Torgersen           39.3          20.6               190
 7 Adelie  Torgersen           38.9          17.8               181
 8 Adelie  Torgersen           39.2          19.6               195
 9 Adelie  Torgersen           34.1          18.1               193
10 Adelie  Torgersen           42            20.2               190
# ℹ 334 more rows

# select all columns except those from species to flipper_length_mm
select(penguins, -(species:flipper_length_mm))

# A tibble: 344 × 3
   body_mass_g sex     year
         <int> <fct>  <int>
 1        3750 male    2007
 2        3800 female  2007
 3        3250 female  2007
 4          NA <NA>    2007
 5        3450 female  2007
 6        3650 male    2007
 7        3625 female  2007
 8        4675 male    2007
 9        3475 <NA>    2007
10        4250 <NA>    2007
# ℹ 334 more rows
…
8b. Re-name the tidepool data frame object using snake_case once again (if you didn’t already do so during re-import). Using dplyr and the rename() command, rename all the columns in the tidepool metadata using snake_case.

Add New Variables with mutate()

Adding new columns or variables that are functions of existing columns is exactly where mutate() comes in.

# create a smaller sub-set of data to work with
penguins_reduced <- select(penguins, species, bill_length_mm, bill_depth_mm)

# mutate to add column that calculates bill volume (BTW this is not a real measurement metric that opthimologists use, just an example I'm using for this)
mutate(penguins_reduced,
       bill_volume = bill_length_mm * bill_depth_mm)

# A tibble: 344 × 4
   species bill_length_mm bill_depth_mm bill_volume
   <fct>            <dbl>         <dbl>       <dbl>
 1 Adelie            39.1          18.7        731.
 2 Adelie            39.5          17.4        687.
 3 Adelie            40.3          18          725.
 4 Adelie            NA            NA           NA 
 5 Adelie            36.7          19.3        708.
 6 Adelie            39.3          20.6        810.
 7 Adelie            38.9          17.8        692.
 8 Adelie            39.2          19.6        768.
 9 Adelie            34.1          18.1        617.
10 Adelie            42            20.2        848.
# ℹ 334 more rows
…
